{
    "$id": "https://iqiper.io/activity/{id}/message/PUT",
    "type": "object",
    "required": [
        "alert_message"
    ],
    "properties": {
        "alert_message": {
            "type": "string",
			"minLength": 1,
			"maxLength": 1024,
			"pattern": "^[\\p{L}\\p{M}\\p{P}\\p{Z}\\p{S}\\p{N}\\n ]*$"
		}
	}
}
